Pool [4,4,5,5,5,5,4,4,5,4]
P0-A [1,1,0,0,2,0,1,1,3,1]
P0-R [1,1,0,0,1,0,1,1,2,1]
P1-A [1,1,2,1,2,1,4,2,2,2]
P1-R [0,1,1,1,1,1,3,2,1,1]
P2-A [1,0,1,1,2,1,2,1,1,1]
P2-R [1,0,1,1,1,1,2,1,1,1]
P3-A [1,1,2,2,2,1,2,2,2,2]
P3-R [1,1,2,2,2,1,2,2,2,2]
P4-A [1,1,2,2,2,1,2,2,2,2]
P4-R [1,1,2,2,2,1,2,2,2,2]
P0-A [1,1,0,0,2,0,1,1,3,1]
P0-R [1,1,0,0,2,0,1,1,3,1]
P1-A [1,1,2,1,2,1,2,2,2,2]
P1-R [1,1,2,1,2,1,2,2,2,2]
P2-A [1,0,1,1,2,1,2,1,1,1]
P2-R [1,0,1,1,2,1,2,1,1,1]
P3-A [1,1,0,0,0,1,0,0,0,0]
P3-R [1,1,0,0,0,1,0,0,0,0]
P4-A [1,1,0,0,0,1,1,0,1,1]
P4-R [1,1,0,0,0,1,1,0,1,1]